<?xml version="1.0" encoding="UTF-8" standalone="no"?>
<!-- Created with Inkscape (http://www.inkscape.org/) -->

<svg
   xmlns:dc="http://purl.org/dc/elements/1.1/"
   xmlns:cc="http://creativecommons.org/ns#"
   xmlns:rdf="http://www.w3.org/1999/02/22-rdf-syntax-ns#"
   xmlns:svg="http://www.w3.org/2000/svg"
   xmlns="http://www.w3.org/2000/svg"
   xmlns:sodipodi="http://sodipodi.sourceforge.net/DTD/sodipodi-0.dtd"
   xmlns:inkscape="http://www.inkscape.org/namespaces/inkscape"
   width="744.09448819"
   height="1052.3622047"
   id="svg2"
   version="1.1"
   inkscape:version="0.48.2 r9819"
   sodipodi:docname="Baguette.svg"
   inkscape:export-filename="/Users/Z13J/Gluten Free Boy/Assets/Art/Art/Baguette.png"
   inkscape:export-xdpi="90"
   inkscape:export-ydpi="90">
  <defs
     id="defs4">
    <clipPath
       clipPathUnits="userSpaceOnUse"
       id="clipPath4262">
      <path
         style="fill:#000000;fill-opacity:1;stroke:none"
         d="m 481.13766,477.89352 c 0,54.21146 -43.94708,98.15852 -98.15853,98.15852 -54.21144,0 -98.15851,-43.94706 -98.15851,-98.15852 0,-54.21145 43.94707,-98.15851 98.15851,-98.15851 54.21145,0 98.15853,43.94706 98.15853,98.15851 z"
         id="path4264"
         inkscape:connector-curvature="0" />
    </clipPath>
  </defs>
  <sodipodi:namedview
     id="base"
     pagecolor="#ffffff"
     bordercolor="#666666"
     borderopacity="1.0"
     inkscape:pageopacity="0.0"
     inkscape:pageshadow="2"
     inkscape:zoom="0.65291292"
     inkscape:cx="402.289"
     inkscape:cy="604.88367"
     inkscape:document-units="px"
     inkscape:current-layer="layer1"
     showgrid="false"
     inkscape:window-width="1235"
     inkscape:window-height="801"
     inkscape:window-x="218"
     inkscape:window-y="42"
     inkscape:window-maximized="0"
     showguides="true"
     inkscape:guide-bbox="true" />
  <metadata
     id="metadata7">
    <rdf:RDF>
      <cc:Work
         rdf:about="">
        <dc:format>image/svg+xml</dc:format>
        <dc:type
           rdf:resource="http://purl.org/dc/dcmitype/StillImage" />
        <dc:title></dc:title>
      </cc:Work>
    </rdf:RDF>
  </metadata>
  <g
     inkscape:label="Layer 1"
     inkscape:groupmode="layer"
     id="layer1">
    <g
       id="g3826"
       transform="translate(12.873248,-17.700716)"
       inkscape:export-xdpi="90"
       inkscape:export-ydpi="90"
       inkscape:export-filename="/Users/Z13J/Gluten Free Boy/Assets/Art/Art/Donut.png"
       clip-path="none"
       mask="none" />
    <path
       transform="translate(-4.827468,-56.32046)"
       style="fill:#000000;fill-opacity:1;stroke:none"
       d="m 545.6498,545.26378 c 0,110.86686 5.99848,259.1667 -42.06699,330.69864 -49.21704,73.24573 -81.04292,78.24126 -133.47694,78.24126 -52.43402,0 -62.2932,0.63997 -120.36184,-67.5557 -51.82322,-60.86105 -63.50794,-232.71679 -63.50794,-343.58365 0,-110.86685 -9.4418,-267.22724 47.9949,-337.42048 50.8966,-62.2006 83.44085,-64.06392 135.87488,-64.06392 52.43402,0 73.14165,-0.1923 123.97454,62.06038 55.70662,68.2213 51.56939,230.75662 51.56939,341.62347 z"
       id="path4284"
       inkscape:connector-curvature="0"
       sodipodi:nodetypes="sssssssss" />
    <path
       sodipodi:nodetypes="sssssssss"
       inkscape:connector-curvature="0"
       id="path4287"
       d="m 523.29896,486.87646 c 0,101.00604 7.29092,253.69027 -33.5705,314.45037 -44.07634,65.54062 -75.87627,79.06574 -123.64666,79.06574 -47.7704,0 -76.50599,-10.6612 -121.00085,-79.06574 -37.80464,-58.11928 -42.26777,-216.27745 -42.26777,-317.28349 0,-101.00604 -9.31221,-253.03954 37.86967,-312.88539 45.93768,-58.2677 77.62854,-68.98143 125.39895,-68.98143 47.77039,0 81.34637,13.41394 119.24855,68.98143 46.47036,68.12911 37.96861,214.71247 37.96861,315.71851 z"
       style="fill:#c87137;fill-opacity:1;stroke:none" />
    <g
       id="g4314"
       transform="translate(0,14.165575)">
      <path
         sodipodi:nodetypes="ccccc"
         inkscape:connector-curvature="0"
         id="path4310"
         d="m 263.96994,599.06162 208.811,-98.19256 -1.22986,50.94169 -210.42014,94.97426 z"
         style="fill:#502d16;fill-opacity:1;stroke:none" />
      <path
         style="fill:#a05a2c;fill-opacity:1;stroke:none"
         d="m 274.24001,605.44397 190.87445,-90.60974 -1.60916,30.57395 -189.88042,82.06695 z"
         id="path4312"
         inkscape:connector-curvature="0"
         sodipodi:nodetypes="ccccc" />
    </g>
    <g
       id="g4318"
       transform="translate(5.6662302,130.32329)">
      <path
         style="fill:#502d16;fill-opacity:1;stroke:none"
         d="m 263.96994,599.06162 208.811,-98.19256 -1.22986,50.94169 -210.42014,94.97426 z"
         id="path4320"
         inkscape:connector-curvature="0"
         sodipodi:nodetypes="ccccc" />
      <path
         sodipodi:nodetypes="ccccc"
         inkscape:connector-curvature="0"
         id="path4322"
         d="m 274.24001,605.44397 190.87445,-90.60974 -1.60916,30.57395 -189.88042,82.06695 z"
         style="fill:#a05a2c;fill-opacity:1;stroke:none" />
    </g>
    <g
       transform="translate(-8.4993452,-101.99214)"
       id="g4324">
      <path
         sodipodi:nodetypes="ccccc"
         inkscape:connector-curvature="0"
         id="path4326"
         d="m 263.96994,599.06162 208.811,-98.19256 -1.22986,50.94169 -210.42014,94.97426 z"
         style="fill:#502d16;fill-opacity:1;stroke:none" />
      <path
         style="fill:#a05a2c;fill-opacity:1;stroke:none"
         d="m 274.24001,605.44397 190.87445,-90.60974 -1.60916,30.57395 -189.88042,82.06695 z"
         id="path4328"
         inkscape:connector-curvature="0"
         sodipodi:nodetypes="ccccc" />
    </g>
    <g
       id="g4330"
       transform="translate(-14.165575,-223.81609)">
      <path
         style="fill:#502d16;fill-opacity:1;stroke:none"
         d="m 263.96994,599.06162 208.811,-98.19256 -1.22986,50.94169 -210.42014,94.97426 z"
         id="path4332"
         inkscape:connector-curvature="0"
         sodipodi:nodetypes="ccccc" />
      <path
         sodipodi:nodetypes="ccccc"
         inkscape:connector-curvature="0"
         id="path4334"
         d="m 274.24001,605.44397 190.87445,-90.60974 -1.60916,30.57395 -189.88042,82.06695 z"
         style="fill:#a05a2c;fill-opacity:1;stroke:none" />
    </g>
    <g
       transform="translate(-19.831805,-337.14069)"
       id="g4336">
      <path
         sodipodi:nodetypes="ccccc"
         inkscape:connector-curvature="0"
         id="path4338"
         d="m 263.96994,599.06162 208.811,-98.19256 -1.22986,50.94169 -210.42014,94.97426 z"
         style="fill:#502d16;fill-opacity:1;stroke:none" />
      <path
         style="fill:#a05a2c;fill-opacity:1;stroke:none"
         d="m 274.24001,605.44397 190.87445,-90.60974 -1.60916,30.57395 -189.88042,82.06695 z"
         id="path4340"
         inkscape:connector-curvature="0"
         sodipodi:nodetypes="ccccc" />
    </g>
  </g>
</svg>
